
************* 08/11/2021 7:43:49 AM *************
http://localhost:44762/giftcard/sendvoucherexpirationreminderemail
***********************************************

************* 08/11/2021 7:43:50 AM *************
Email schedular method Called and Set request parameter.
***********************************************

************* 08/11/2021 7:43:54 AM *************
Email schedular - Failed: Unable to connect to the remote server , StackTrace:    at System.Net.HttpWebRequest.GetResponse()
   at Znode.Engine.TaskScheduler.VoucherEmailHelper.CallVoucherEmailAPI(String apiDomainURL, String userId, String token)
***********************************************
