
************* 08/31/2021 10:13:16 AM *************
http://localhost:44762/giftcard/sendvoucherexpirationreminderemail
***********************************************

************* 08/31/2021 10:13:16 AM *************
Email schedular method Called and Set request parameter.
***********************************************

************* 08/31/2021 10:13:21 AM *************
Email schedular - Failed: Unable to connect to the remote server , StackTrace:    at System.Net.HttpWebRequest.GetResponse()
   at Znode.Engine.TaskScheduler.VoucherEmailHelper.CallVoucherEmailAPI(String apiDomainURL, String userId, String token)
***********************************************
