
************* 19-07-2021 5.35.30 PM *************
19-07-2021 5.35.30 PM-- API Call Success.------API called http://localhost:44762//search/createindex/newdrewshoes2/PRODUCTION/5/2693/2693 
***********************************************

************* 19-07-2021 5.35.30 PM *************
Indexer|5|newdrewshoes2|5|2693|Manually|http://localhost:44762/|77350|2693|PRODUCTION|bG9jYWxob3N0OjY3NjZ8|0|600000
***********************************************

************* 19-07-2021 10.42.08 PM *************
Indexer|5|newdrewshoes2|5|2693|Manually|http://localhost:44762/|77350|2693|PRODUCTION|bG9jYWxob3N0OjY3NjZ8|0|600000
***********************************************
