<?xml version="1.0" encoding="utf-8"?>
<svg xmlns="http://www.w3.org/2000/svg" xmlns:xlink="http://www.w3.org/1999/xlink" style="margin: auto; background: none; display: block; shape-rendering: auto; animation-play-state: running; animation-delay: 0s;" width="200px" height="200px" viewBox="0 0 100 100" preserveAspectRatio="xMidYMid">
<circle cx="50" cy="50" r="0" fill="none" stroke="#15aca3" stroke-width="4" style="animation-play-state: running; animation-delay: 0s;">
  <animate attributeName="r" repeatCount="indefinite" dur="1.4492753623188404s" values="0;38" keyTimes="0;1" keySplines="0 0.2 0.8 1" calcMode="spline" begin="-0.7246376811594202s" style="animation-play-state: running; animation-delay: 0s;"></animate>
  <animate attributeName="opacity" repeatCount="indefinite" dur="1.4492753623188404s" values="1;0" keyTimes="0;1" keySplines="0.2 0 0.8 1" calcMode="spline" begin="-0.7246376811594202s" style="animation-play-state: running; animation-delay: 0s;"></animate>
</circle>
<circle cx="50" cy="50" r="0" fill="none" stroke="#15aca3" stroke-width="4" style="animation-play-state: running; animation-delay: 0s;">
  <animate attributeName="r" repeatCount="indefinite" dur="1.4492753623188404s" values="0;38" keyTimes="0;1" keySplines="0 0.2 0.8 1" calcMode="spline" style="animation-play-state: running; animation-delay: 0s;"></animate>
  <animate attributeName="opacity" repeatCount="indefinite" dur="1.4492753623188404s" values="1;0" keyTimes="0;1" keySplines="0.2 0 0.8 1" calcMode="spline" style="animation-play-state: running; animation-delay: 0s;"></animate>
</circle>
<!-- [ldio] generated by https://loading.io/ --></svg>