
************* 09/15/2021 7:07:02 PM *************
Index was outside the bounds of the array.-------   at Znode.Engine.TaskScheduler.ProductFeedHelper.GetModelFromArguments(String arguments)
   at Znode.Engine.TaskScheduler.ProductFeedHelper.InvokeMethod(String[] args)
   at Znode.Engine.TaskScheduler.Program.Main(String[] args)
***********************************************
