
************* 09/07/2021 7:08:53 PM *************
Index was outside the bounds of the array.-------   at Znode.Engine.TaskScheduler.ProductFeedHelper.GetModelFromArguments(String arguments)
   at Znode.Engine.TaskScheduler.ProductFeedHelper.InvokeMethod(String[] args)
   at Znode.Engine.TaskScheduler.Program.Main(String[] args)
***********************************************

************* 09/07/2021 7:10:04 PM *************
Index was outside the bounds of the array.-------   at Znode.Engine.TaskScheduler.ProductFeedHelper.GetModelFromArguments(String arguments)
   at Znode.Engine.TaskScheduler.ProductFeedHelper.InvokeMethod(String[] args)
   at Znode.Engine.TaskScheduler.Program.Main(String[] args)
***********************************************

************* 09/07/2021 7:11:22 PM *************
Index was outside the bounds of the array.-------   at Znode.Engine.TaskScheduler.ProductFeedHelper.GetModelFromArguments(String arguments)
   at Znode.Engine.TaskScheduler.ProductFeedHelper.InvokeMethod(String[] args)
   at Znode.Engine.TaskScheduler.Program.Main(String[] args)
***********************************************

************* 09/07/2021 7:13:06 PM *************
Index was outside the bounds of the array.-------   at Znode.Engine.TaskScheduler.ProductFeedHelper.GetModelFromArguments(String arguments)
   at Znode.Engine.TaskScheduler.ProductFeedHelper.InvokeMethod(String[] args)
   at Znode.Engine.TaskScheduler.Program.Main(String[] args)
***********************************************
