
************* 09/28/2021 4:47:18 PM *************
Index was outside the bounds of the array.-------   at Znode.Engine.TaskScheduler.ProductFeedHelper.GetModelFromArguments(String arguments)
   at Znode.Engine.TaskScheduler.ProductFeedHelper.InvokeMethod(String[] args)
   at Znode.Engine.TaskScheduler.Program.Main(String[] args)
***********************************************
