
************* 09/26/2021 11:58:02 AM *************
Index was outside the bounds of the array.-------   at Znode.Engine.TaskScheduler.ProductFeedHelper.GetModelFromArguments(String arguments)
   at Znode.Engine.TaskScheduler.ProductFeedHelper.InvokeMethod(String[] args)
   at Znode.Engine.TaskScheduler.Program.Main(String[] args)
***********************************************
